…
ℹ Binomials k_B = 1 and 2, Beta-Binomials k_BB = 0.
✓ Fits to run, n = 4.

ℹ Bmix best fit completed in 0 mins

── [ BMix ] My BMix model n = 100 with k = 2 component(s) (2 + 0) ──────────────
● Clusters: π = 70% [Bin 2] and 30% [Bin 1], with π > 0.
● Binomial Bin 1 with mean = 0.411482115751107.
● Binomial Bin 2 with mean = 0.693971355613447.
ℹ Score(s): ICL = 731.95.
> 
> Clusters(x, data)
# A tibble: 100 x 5
   successes trials cluster `Bin 1`       `Bin 2`
       <int>  <dbl> <chr>     <dbl>         <dbl>
 1        42    100 Bin 1     1.00  0.00000129   
 2        37    100 Bin 1     1.00  0.00000000508
 3        49    100 Bin 1     0.997 0.00302      
 4        41    100 Bin 1     1.00  0.000000427  
 5        42    100 Bin 1     1.00  0.00000129   
 6        41    100 Bin 1     1.00  0.000000427  
 7        53    100 Bin 1     0.797 0.203        
 8        41    100 Bin 1     1.00  0.000000427  
 9        42    100 Bin 1     1.00  0.00000129   
10        37    100 Bin 1     1.00  0.00000000508
# … with 90 more rows
…
