Using BMix • BMix
…
print(x)
#> ── [ BMix ] My BMix model n = 1700 with k = 3 component(s) (3 + 0) ─────────────
#> • Clusters: π = 42% [Bin 2], 41% [Bin 3], and 18% [Bin 1], with π > 0.
#> • Binomial Bin 1 with mean = 0.497648592976857.
#> • Binomial Bin 2 with mean = 0.101526812716731.
#> • Binomial Bin 3 with mean = 0.248839045631862.
#> ℹ Score (model selection): ICL = 13247.2.

Note: The input data is not stored inside the fit, you have keep it and pass it to plotting functions. Keep it consistent, the package is not doing any checks about the input.

You have getters to access the clusters (as tibble) and the fit parameters.

# Augment data with cluster labels and latent variables
Clusters(x, data)
#> # A tibble: 1,700 × 6
#>    successes trials cluster `Bin 1`  `Bin 2`  `Bin 3`
#>        <int>  <dbl> <chr>     <dbl>    <dbl>    <dbl>
#>  1        55    100 Bin 1     1.00  2.46e-24 1.05e-10
#>  2        43    100 Bin 1     0.999 2.42e-13 5.39e- 4
#>  3        53    100 Bin 1     1.00  1.67e-22 1.38e- 9
#>  4        55    100 Bin 1     1.00  2.46e-24 1.05e-10
#>  5        51    100 Bin 1     1.00  1.14e-20 1.81e- 8
#>  6        59    100 Bin 1     1.00  5.34e-28 6.07e-13
#>  7        44    100 Bin 1     1.00  2.93e-14 1.49e- 4
#>  8        50    100 Bin 1     1.00  9.37e-20 6.56e- 8
#>  9        52    100 Bin 1     1.00  1.38e-21 4.99e- 9
#> 10        49    100 Bin 1     1.00  7.72e-19 2.38e- 7
#> # … with 1,690 more rows
…
