Extract clustering assignments. — Clusters • BMix
…
Clusters(x, data)
#> # A tibble: 100 x 5
#>    successes trials cluster  `Bin 1` `Bin 2`
#>        <int>  <dbl> <chr>      <dbl>   <dbl>
#>  1        35    100 Bin 2   8.89e-12   1.000
#>  2        37    100 Bin 2   1.13e-10   1.000
#>  3        36    100 Bin 2   3.17e-11   1.000
#>  4        38    100 Bin 2   4.03e-10   1.000
#>  5        46    100 Bin 2   1.05e- 5   1.000
#>  6        47    100 Bin 2   3.75e- 5   1.000
#>  7        40    100 Bin 2   5.12e- 9   1.000
#>  8        40    100 Bin 2   5.12e- 9   1.000
#>  9        44    100 Bin 2   8.28e- 7   1.000
#> 10        37    100 Bin 2   1.13e-10   1.000
#> # … with 90 more rows
…
